{
  "apps": [
    {
      "serverURL": "http://parseserver-cupag-env.us-east-1.elasticbeanstalk.com/parse",
      "appId": "TinDog_App",
      "masterKey": "OCRTeachLeadP3",
      "appName": "TinDog"
    }
  ]
}